apid;category;class;expected_packets;instrument;descr;name;pcat;pid;priority;tid;product
580;VHF;descriptor;1;SVOM;A packet TmVhfEclairsAlertDescriptor2;TmVhfEclairsAlertDescriptor2;0;0;13;0;
581;VHF;descriptor;1;SVOM;A packet TmVhfEclairsAlertDescriptor3;TmVhfEclairsAlertDescriptor3;0;0;13;0;
582;VHF;descriptor;1;SVOM;A packet TmVhfEclairsAlertDescriptor4;TmVhfEclairsAlertDescriptor4;0;0;13;0;
0;VHF;idle;1;SVOM;A packet IdleFrame;IdleFrame;0;0;0;0;
568;VHF;none;1;SVOM;A packet TmVhfPdpuGrb;TmVhfPdpuGrb;0;0;-1;0;
569;VHF;recurrent;1;SVOM;A packet TmVhfPdpuRecurrent1;TmVhfPdpuRecurrent1;0;0;-1;0;
570;VHF;recurrent;1;SVOM;A packet TmVhfPdpuRecurrent2;TmVhfPdpuRecurrent2;0;0;-1;0;
576;VHF;alert;1;SVOM;A packet TmVhfEclairsAlert;TmVhfEclairsAlert;0;0;1;0;
577;VHF;lightcurve;22;SVOM;A packet TmVhfEclairsHighPriorityLightCurve;TmVhfEclairsHighPriorityLightCurve;0;0;10;0;
578;VHF;lightcurve;42;SVOM;A packet TmVhfEclairsLowPriorityLightCurve;TmVhfEclairsLowPriorityLightCurve;0;0;18;0;
579;VHF;descriptor;1;SVOM;A packet TmVhfEclairsAlertDescriptor1;TmVhfEclairsAlertDescriptor1;0;0;13;0;
583;VHF;descriptor;1;SVOM;A packet TmVhfEclairsAlertDescriptor5;TmVhfEclairsAlertDescriptor5;0;0;13;0;
584;VHF;image;49;SVOM;A packet TmVhfEclairsSubImage;TmVhfEclairsSubImage;0;0;22;0;
585;VHF;image;49;SVOM;A packet TmVhfEclairsShadowgram;TmVhfEclairsShadowgram;0;0;-1;0;
586;VHF;recurrent;1;SVOM;A packet TmVhfEclairsRecurrent1;TmVhfEclairsRecurrent1;0;0;23;0;
587;VHF;recurrent;1;SVOM;A packet TmVhfEclairsRecurrent2;TmVhfEclairsRecurrent2;0;0;23;0;
608;VHF;position;1;SVOM;A packet TmVhfMxtPosition;TmVhfMxtPosition;0;0;2;0;
609;VHF;photonlist;10;SVOM;A packet TmVhfMxtPhotonL;TmVhfMxtPhotonL;0;0;8;0;
610;VHF;photonlist;10;SVOM;A packet TmVhfMxtPhotonD;TmVhfMxtPhotonD;0;0;28;0;
611;VHF;photonlist;10;SVOM;A packet TmVhfMxtPhotonMM;TmVhfMxtPhotonMM;0;0;-1;0;
612;VHF;recurrent;1;SVOM;A packet TmVhfMxtRec;TmVhfMxtRec;0;0;25;0;
791;VHF;alert;1;SVOM;A packet TmVhfGrmTrigger;TmVhfGrmTrigger;0;0;5;0;
792;VHF;spectra;1;SVOM;A packet TmVhfGrmGrdSpectr;TmVhfGrmGrdSpectr;0;0;-1;0;
793;VHF;lightcurve;22;SVOM;A packet TmVhfGrmHPLcurve;TmVhfGrmHPLcurve;0;0;10;0;
794;VHF;lightcurve;42;SVOM;A packet TmVhfGrmLPLcurve;TmVhfGrmLPLcurve;0;0;10;0;
795;VHF;none;1;SVOM;A packet TmVhfGrmRec;TmVhfGrmRec;0;0;-1;0;
919;VHF;none;1;SVOM;A packet TmVhfVtAttChart;TmVhfVtAttChart;0;0;-1;0;
920;VHF;none;1;SVOM;A packet TmVhfVtFindChartR;TmVhfVtFindChartR;0;0;-1;0;
921;VHF;none;1;SVOM;A packet TmVhfVtFindChartB;TmVhfVtFindChartB;0;0;-1;0;
922;VHF;none;1;SVOM;A packet TmVhfVtFindChartRB;TmVhfVtFindChartRB;0;0;-1;0;
923;VHF;none;1;SVOM;A packet TmVhfVtSubIm1R;TmVhfVtSubIm1R;0;0;-1;0;
924;VHF;none;1;SVOM;A packet TmVhfVtSubIm16R;TmVhfVtSubIm16R;0;0;-1;0;
925;VHF;none;1;SVOM;A packet TmVhfVtSubIm1B;TmVhfVtSubIm1B;0;0;-1;0;
926;VHF;none;1;SVOM;A packet TmVhfVtSubIm16B;TmVhfVtSubIm16B;0;0;-1;0;
927;VHF;none;1;SVOM;A packet TmVhfVtRec1;TmVhfVtRec1;0;0;-1;0;
928;VHF;none;1;SVOM;A packet TmVhfVtRec2;TmVhfVtRec2;0;0;-1;0;
